Place,Name,Sex,BirthDate,Age,Equipment,Division,BodyweightKg,WeightClassKg,Squat1Kg,Squat2Kg,Squat3Kg,Squat4Kg,Best3SquatKg,Bench1Kg,Bench2Kg,Bench3Kg,Bench4Kg,Best3BenchKg,Deadlift1Kg,Deadlift2Kg,Deadlift3Kg,Deadlift4Kg,Best3DeadliftKg,TotalKg,Event
1,Brooke Humphries,F,1995-02-28,27,Raw,DT Novice,60.7,67.5,90,95,-100,,95,45,50,-55,,50,102.5,110,116,117.5,116,261,SBD
1,Regina Sowell,F,1984-04-26,38,Raw,DT Open,63.32,67.5,117.5,-128.5,128.5,132.5,128.5,72.5,-78.5,-78.5,,72.5,137.5,142.5,147.5,-150,147.5,348.5,SBD
1,Regina Sowell,F,1984-04-26,38,Raw,DT Sub Master,63.32,67.5,117.5,-128.5,128.5,132.5,128.5,72.5,-78.5,-78.5,,72.5,137.5,142.5,147.5,-150,147.5,348.5,SBD
1,Emily Powell #3,F,2000-02-17,22,Raw,DT Int,73.62,75,,,,,,,,,,,110,120,137.5,142.5,137.5,137.5,D
1,MacKenzie Brown #3,F,2011-08-11,10,Raw,DT Open,42,44,,,,,,,,,,,50,55,60,-62.5,60,60,D
1,Blaine Sowell,M,2007-07-02,14,Raw,DT Open,59.78,60,105,115,120,-125,120,60,65,67.5,,67.5,150,157.5,162.5,167.5,162.5,350,SBD
1,Blaine Sowell,M,2007-07-02,14,Raw,DT Teen,59.78,60,105,115,120,-125,120,60,65,67.5,,67.5,150,157.5,162.5,167.5,162.5,350,SBD
1,Wyatt Allen,M,2006-06-06,16,Raw,DT Teen,66.72,67.5,105,115,120,,120,95,97.5,-102.5,,97.5,145,150,160,,160,377.5,SBD
1,Carter Busbee,M,2006-11-02,15,Raw,DT Teen,80.3,82.5,110,115,120,,120,62.5,-65,-65,,62.5,130,137.5,147.5,,147.5,330,SBD
1,Marcus Franklin Jr,M,2007-03-01,15,Raw,DT Teen,104.6,110,-170,175,182.5,187.5,182.5,92.5,100,110,,110,-165,182.5,197.5,200,197.5,490,SBD
1,John Herod,M,1979-04-22,43,Raw,M1,110.86,125,170,182.5,200,,200,152.5,162.5,170,,170,237.5,252.5,267.5,,267.5,637.5,SBD
1,Lane Davis,M,2003-11-12,18,Wraps,DT Open,64,67.5,105,112.5,115,,115,70,75,77.5,,77.5,125,-135,135,142.5,135,327.5,SBD
1,Chad Ward #1,M,1971-01-26,51,Wraps,DT Open,123.1,125,227.5,240,-252.5,,240,205,215,-220,,215,205,227.5,-232.5,,227.5,682.5,SBD
1,Todd LeBrun Jr,M,1989-06-22,32,Wraps,DT Open,89.31,90,160,-185,-185,,160,132.5,145,147.5,,147.5,200,-217.5,-217.5,,200,507.5,SBD
1,Zane Smith #1,M,2005-04-11,17,Single-ply,DT Teen,73.71,75,200,,,,200,150,152.5,-172.5,,152.5,205,215,-227.5,,215,567.5,SBD
1,Garrison Conner,M,2004-05-09,18,Raw,DT Open,79.92,82.5,,,,,,87.5,92.5,95,-100,95,205,215,230,240,230,325,BD
1,Bruce Koch #1,M,1961-11-25,60,Raw,DT Master 3,130.6,140,,,,,,155,165,170,,170,255,275,290,,290,460,BD
1,Taylor Cox,M,1992-06-22,29,Raw,Open,124.28,125,,,,,,190,200,-210,,200,290,310,-320,,310,510,BD
1,Gabriel Barrera,M,1987-05-29,35,Raw,DT Sub Master,107.32,110,,,,,,105,-127.5,130,,130,,,,,,130,B
1,Taylor Ray #3,M,2007-10-09,14,Raw,DT Teen,108.1,110,,,,,,,,,,,142.5,147.5,-167.5,,147.5,147.5,D
1,Bob Hester,M,1973-06-19,48,Raw,Open,96.4,100,,,,,,,,,,,305,322.5,-325,,322.5,322.5,D
