Place,Name,State,WeightClassKg,BodyweightKg,Age,Best3SquatKg,Best3BenchKg,Best3DeadliftKg,TotalKg,Sex,Division,Equipment,Event
1,Lisa Abarca,CA,48,46.25,21,87.5,60,105,252.5,F,Juniors 20-23,Raw,SBD
1,Shey Quadr,CA,52,51.9,22,107.5,55,145,307.5,F,Juniors 20-23,Raw,SBD
1,Jaclynn Phan,CA,60,59.25,21,102.5,45,117.5,265,F,Juniors 20-23,Raw,SBD
1,Kara Morison,CA,56,55.5,25,90,52.5,97.5,240,F,Open,Raw,SBD
1,Lorene Berryman,CA,67.5,66.4,30,127.5,70,160,357.5,F,Open,Raw,SBD
2,Alejandra Camarena,CA,67.5,64.65,28,122.5,77.5,155,355,F,Open,Raw,SBD
3,Monica Benavides #2,CA,67.5,64.25,24,92.5,47.5,92.5,232.5,F,Open,Raw,SBD
1,Stephanie Morrow,CA,82.5,76,31,105,57.5,122.5,285,F,Open,Raw,SBD
1,Tiana Reola,CA,90+,114.2,29,95,55,130,280,F,Open,Raw,SBD
1,Caprice Flores,CA,75,74,35,132.5,62.5,157.5,352.5,F,Submasters 35-39,Raw,SBD
1,Crystal Mathis,CA,82.5,78.25,35,70,47.5,70,187.5,F,Submasters 35-39,Raw,SBD
1,Nicole Horton,CA,90,84.85,35,100,60,130,290,F,Submasters 35-39,Raw,SBD
1,Austin Finningan,TX,60,57.5,22,145,102.5,190,437.5,M,Juniors 20-23,Raw,SBD
1,Alvin Wang,CA,75,74.4,16,192.5,102.5,197.5,492.5,M,Juniors 16-17,Raw,SBD
1,Keenan Dung,HI,75,72.3,19,165,97.5,217.5,480,M,Juniors 18-19,Raw,SBD
1,EJ Roux,CA,75,74.45,21,175,110,217.5,502.5,M,Juniors 20-23,Raw,SBD
2,Erick Mejia,CA,75,74.45,21,152.5,117.5,192.5,462.5,M,Juniors 20-23,Raw,SBD
3,Richard Lu,CA,75,73.15,20,142.5,82.5,195,420,M,Juniors 20-23,Raw,SBD
1,Babneet Dhillon,CA,90,89.4,21,222.5,127.5,275,625,M,Juniors 20-23,Raw,SBD
2,Alvin Pov,CA,90,86.4,22,227.5,125,262.5,615,M,Juniors 20-23,Raw,SBD
DQ,Angel Figueroa,CA,100,99.7,20,227.5,125,-237.5,,M,Juniors 20-23,Raw,SBD
1,Newton Cheng,CA,60,59.4,38,175,105,217.5,497.5,M,Open,Raw,SBD
2,Austin Finningan,CA,60,57.5,22,145,102.5,190,437.5,M,Open,Raw,SBD
1,William Liao,CA,67.5,66.95,24,120,75,150,345,M,Open,Raw,SBD
1,Alexander Nguyen #4,CA,75,74.6,25,215,142.5,265,622.5,M,Open,Raw,SBD
2,Marcos Cruz,CA,75,74.1,28,205,117.5,237.5,560,M,Open,Raw,SBD
3,Chris Pardini,CA,75,74.1,25,160,112.5,187.5,460,M,Open,Raw,SBD
1,Shawn Taylor,CA,82.5,81.4,24,215,130,250,595,M,Open,Raw,SBD
2,Gabriel Ott,CA,82.5,81.6,26,202.5,130,217.5,550,M,Open,Raw,SBD
3,Jeremy McKellar,CA,82.5,76.1,24,87.5,117.5,182.5,387.5,M,Open,Raw,SBD
1,Phil Nguyen,CA,90,87,27,225,142.5,225,592.5,M,Open,Raw,SBD
2,Chris Gonzales #2,CA,90,89.9,29,195,142.5,220,557.5,M,Open,Raw,SBD
3,Wilmer Zavala,CA,90,90,26,175,115,187.5,477.5,M,Open,Raw,SBD
4,Alan Taylor,CA,90,85,29,147.5,105,185,437.5,M,Open,Raw,SBD
1,Tony McCreary,CA,100,99.4,30,237.5,157.5,290,685,M,Open,Raw,SBD
2,David Tran,CA,100,96.1,22,205,147.5,257.5,610,M,Open,Raw,SBD
3,Daniel Melgoza,CA,100,97.7,41,205,167.5,227.5,600,M,Open,Raw,SBD
4,Hani Yosif,CA,100,91.75,28,167.5,122.5,205,495,M,Open,Raw,SBD
5,Allen Paisansiri,CA,100,99.6,26,190,82.5,197.5,470,M,Open,Raw,SBD
1,Francisco Gils,CA,110,107.5,31,237.5,155,275,667.5,M,Open,Raw,SBD
2,Nick Russo,CA,110,107.7,32,185,165,260,610,M,Open,Raw,SBD
3,Ricardo Perez,CA,110,109.1,31,212.5,135,230,577.5,M,Open,Raw,SBD
1,Christian Simsuangco,CA,125,116.2,31,250,172.5,305,727.5,M,Open,Raw,SBD
2,Rey Hernandez,CA,125,111.3,26,187.5,132.5,227.5,547.5,M,Open,Raw,SBD
1,Logan Brown,CA,140+,144.6,31,227.5,205,305,737.5,M,Open,Raw,SBD
1,Newton Cheng,CA,60,59.4,38,175,105,217.4,497.4,M,Submasters 35-39,Raw,SBD
1,Daniel Melgoza,CA,100,97.7,41,205,167.5,227.5,600,M,Masters 40-44,Wraps,SBD
1,Jackson Shepherd,CA,100,98.7,17,197.5,127.5,267.5,592.5,M,Juniors 16-17,Wraps,SBD
1,Chris Brusato,CA,100,94.9,28,275,182.5,282.5,740,M,Open,Wraps,SBD
DQ,JD Whitelow,CA,110,104.7,52,227.5,167.5,-272.5,,M,Masters 50-54,Wraps,SBD
1,James Small,CA,140+,150.7,45,227.5,120,190,537.5,M,Masters 45-49,Wraps,SBD
1,Alejandra Camarena,CA,67.5,64.65,28,,77.5,,77.5,F,Open,Raw,B
1,Erick Mejia,CA,75,74.45,21,,117.5,,117.5,M,Juniors 20-23,Raw,B
1,Alexander Nguyen #4,CA,75,74.6,25,,142.5,,142.5,M,Open,Raw,B
1,Steven O'Brien,CA,90,86.45,68,,130,,130,M,Masters 65-69,Raw,B
1,Kevin Canant,CA,100,97.75,45,,190,,190,M,Masters 45-49,Raw,B
1,Takumi Mitchell,CA,75,69.9,17,,,155,155,M,Juniors 16-17,Raw,D
1,Alexander Nguyen #4,CA,75,74.6,25,,,265,265,M,Open,Raw,D
