Division,WeightClassKg,Place,Name,Team,BodyweightKg,Best3SquatKg,Best3BenchKg,Best3DeadliftKg,TotalKg,Equipment,Event,Sex,BirthDate
Boys,51.71,1,Dustin Bland,Orange Little Cypress-Mauriceville,50.8,122.47,113.4,161.03,396.89,Single-ply,SBD,M,
Boys,51.71,2,David Pena,Orange Little Cypress-Mauriceville,51.71,61.23,43.09,77.11,181.44,Single-ply,SBD,M,
Boys,55.79,1,Kenson Dubois,Orangefield,54.43,90.72,72.57,113.4,276.69,Single-ply,SBD,M,
Boys,55.79,2,Braxton Rambo,Orange Little Cypress-Mauriceville,53.52,97.52,52.16,106.59,256.28,Single-ply,SBD,M,
Boys,55.79,3,Landon Thompson,Orange Little Cypress-Mauriceville,55.79,70.31,52.16,77.11,199.58,Single-ply,SBD,M,
Boys,59.87,1,Kevin Luong,Orangefield,59.87,181.44,92.99,192.78,467.2,Single-ply,SBD,M,
Boys,59.87,2,Seth Williamson,Orangefield,59.42,145.15,95.25,156.49,396.89,Single-ply,SBD,M,
Boys,59.87,3,Mark Vickery,Silsbee,58.51,147.42,83.91,158.76,390.09,Single-ply,SBD,M,
Boys,59.87,4,David Daleo,Orange Little Cypress-Mauriceville,59.42,158.76,70.31,158.76,387.82,Single-ply,SBD,M,
Boys,59.87,DQ,Landen Talley,Silsbee,59.42,,,,,Single-ply,SBD,M,
Boys,67.13,1,Tahj Amerson,West Orange-Stark,65.32,176.9,106.59,172.37,455.86,Single-ply,SBD,M,
Boys,67.13,2,Hayden Dwyer,Orangefield,65.77,172.37,97.52,165.56,435.45,Single-ply,SBD,M,
Boys,67.13,3,Colt Longren,Orangefield,65.77,158.76,90.72,172.37,421.84,Single-ply,SBD,M,
Boys,67.13,4,Layne Reed,Silsbee,66.68,127.01,102.06,151.95,381.02,Single-ply,SBD,M,
Boys,67.13,5,Blaine Leonard,Orangefield,64.41,149.69,92.99,122.47,365.14,Single-ply,SBD,M,
Boys,67.13,6,Daegan Vaughn,Orangefield,66.68,129.27,83.91,122.47,335.66,Single-ply,SBD,M,
Boys,67.13,7,Major Copeland,Orangefield,65.32,113.4,83.91,136.08,333.39,Single-ply,SBD,M,
Boys,74.84,1,Kaden Baugh,Orange Little Cypress-Mauriceville,74.84,244.94,127.01,204.12,576.06,Single-ply,SBD,M,
Boys,74.84,2,Demarcus Warren,West Orange-Stark,74.84,183.7,104.33,190.51,478.54,Single-ply,SBD,M,
Boys,74.84,3,Dustin Helms,West Orange-Stark,72.57,170.1,115.67,190.51,476.27,Single-ply,SBD,M,
Boys,74.84,4,Nicholas Sparks,Orangefield,74.39,176.9,108.86,188.24,474,Single-ply,SBD,M,
Boys,74.84,5,Trevor Williams,Silsbee,70.76,161.03,90.72,188.24,439.98,Single-ply,SBD,M,
Boys,82.1,1,Beau Elkins,Orangefield,79.38,226.8,138.35,172.37,537.51,Single-ply,SBD,M,
Boys,82.1,2,Jacob Unangst,Orangefield,81.19,172.37,104.33,215.46,492.15,Single-ply,SBD,M,
Boys,82.1,3,Pablo Lorenzi,Silsbee,76.66,165.56,136.08,174.63,476.27,Single-ply,SBD,M,
Boys,82.1,4,Cameron Scales,Orangefield,80.74,158.76,102.06,185.97,446.79,Single-ply,SBD,M,
Boys,82.1,5,Leonardo Frias,Orangefield,76.2,102.06,68.04,124.74,294.84,Single-ply,SBD,M,
Boys,89.81,1,Akilles Garcia,Orangefield,87.54,265.35,156.49,244.94,666.78,Single-ply,SBD,M,
Boys,89.81,2,Jayden Smart,Silsbee,85.28,204.12,124.74,206.38,535.24,Single-ply,SBD,M,
Boys,89.81,3,Eddie Winters,Orange Little Cypress-Mauriceville,84.82,170.1,104.33,181.44,455.86,Single-ply,SBD,M,
Boys,89.81,4,Andrew Leblanc,Silsbee,88.9,163.29,102.06,154.22,419.57,Single-ply,SBD,M,
Boys,89.81,5,Carson Walker,Silsbee,86.18,151.95,86.18,151.95,390.09,Single-ply,SBD,M,
Boys,99.79,1,Antonio Bolton,Silsbee,94.35,244.94,149.69,235.87,630.49,Single-ply,SBD,M,
Boys,99.79,2,Jan Nazario,Orange Little Cypress-Mauriceville,97.52,226.8,120.2,208.65,555.65,Single-ply,SBD,M,
Boys,99.79,3,Kade Bryant,Orangefield,98.43,195.04,122.47,185.97,503.49,Single-ply,SBD,M,
Boys,99.79,4,Ashton Childress,West Orange-Stark,99.79,188.24,120.2,195.04,503.49,Single-ply,SBD,M,
Boys,99.79,5,Jeyovannie Golden,Silsbee,96.62,185.97,108.86,183.7,478.54,Single-ply,SBD,M,
Boys,99.79,6,Rigoberto Villanueva,Silsbee,92.08,149.69,97.52,167.83,415.04,Single-ply,SBD,M,
Boys,99.79,7,Devin Dunmon,Orange Little Cypress-Mauriceville,99.34,151.95,83.91,151.95,387.82,Single-ply,SBD,M,
Boys,99.79,8,Daniel Wilbur,Orangefield,92.99,142.88,79.38,151.95,374.21,Single-ply,SBD,M,
Boys,99.79,DQ,Owen Dolbear,Orange Little Cypress-Mauriceville,97.98,,,,,Single-ply,SBD,M,
Boys,99.79,DQ,Cutler Hubbard,Orangefield,98.43,,,,,Single-ply,SBD,M,
Boys,109.77,1,Hunter Ashworth,Orangefield,104.78,294.84,158.76,256.28,709.87,Single-ply,SBD,M,
Boys,109.77,2,Hunter Norwood,Orangefield,107.95,283.5,167.83,226.8,678.12,Single-ply,SBD,M,
Boys,109.77,3,Ethan Meads,Orangefield,107.95,235.87,156.49,204.12,596.47,Single-ply,SBD,M,
Boys,109.77,4,Dylan Whitman,Orangefield,107.95,240.4,145.15,208.65,594.21,Single-ply,SBD,M,
Boys,109.77,5,Andrew Wilson,West Orange-Stark,109.77,235.87,131.54,226.8,594.21,Single-ply,SBD,M,
Boys,109.77,6,Judah Huerta,West Orange-Stark,109.77,190.51,115.67,208.65,514.83,Single-ply,SBD,M,
Boys,109.77,7,Jeterious Brown,West Orange-Stark,104.33,185.97,133.81,188.24,508.02,Single-ply,SBD,M,
Boys,124.74,1,Coby Coulter,Orangefield,122.47,294.84,190.51,251.74,737.09,Single-ply,SBD,M,
Boys,124.74,2,Amier Washington,Orange Little Cypress-Mauriceville,110.22,226.8,151.95,210.92,589.67,Single-ply,SBD,M,
Boys,124.74,3,Carson Phelps,Orange Little Cypress-Mauriceville,120.2,199.58,138.35,195.04,532.97,Single-ply,SBD,M,
Boys,124.74,4,JaKalen Jenkins,West Orange-Stark,124.74,181.44,122.47,192.78,496.68,Single-ply,SBD,M,
Boys,124.74,5,Daylen Edwards,West Orange-Stark,113.4,181.44,115.67,183.7,480.81,Single-ply,SBD,M,
Boys,124.74,6,Elijah Miller,Silsbee,117.03,183.7,88.45,156.49,428.64,Single-ply,SBD,M,
Boys,139.71,1,Dominick Sposato,Silsbee,128.82,240.4,158.76,224.53,623.69,Single-ply,SBD,M,
Boys,139.71,2,Devin Herd,West Orange-Stark,134.26,208.65,111.13,204.12,523.9,Single-ply,SBD,M,
Boys,139.71,3,Drayden Jagneaux,Silsbee,125.19,176.9,120.2,199.58,496.68,Single-ply,SBD,M,
Boys,139.71,4,Brenner Portie,Orange Little Cypress-Mauriceville,125.65,174.63,120.2,179.17,474,Single-ply,SBD,M,
Boys,139.71,5,Octavius Tyler,Silsbee,132.45,158.76,77.11,129.27,365.14,Single-ply,SBD,M,
Boys,139.71+,1,Corben McKinney,Silsbee,140.16,229.06,113.4,199.58,542.04,Single-ply,SBD,M,
Boys,139.71+,DQ,Khaleen Johnson,Orange Little Cypress-Mauriceville,154.22,,,,,Single-ply,SBD,M,
