Division,WeightClassKg,Place,Name,Team,BodyweightKg,Best3SquatKg,Best3BenchKg,Best3DeadliftKg,TotalKg,Equipment,Event,Sex
Boys,55.79,1,Kyle Bailey,Karnes City,54.88,149.69,92.99,147.42,390.09,Single-ply,SBD,M
Boys,55.79,2,Daequan Ellison,Lockhart,55.52,131.54,61.23,122.47,315.25,Single-ply,SBD,M
Boys,59.87,1,Samuel Moczygemba,Poth,58.15,142.88,92.99,156.49,392.36,Single-ply,SBD,M
Boys,59.87,2,Cameron Saucedo,Kyle Lehman,59.78,149.69,97.52,142.88,390.09,Single-ply,SBD,M
Boys,59.87,3,Carlos Alvizo,Poth,59.15,117.93,86.18,136.08,340.19,Single-ply,SBD,M
Boys,59.87,4,Jason Leal,Buda Hays,59.42,120.2,79.38,127.01,326.59,Single-ply,SBD,M
Boys,59.87,5,Danny Morales,Karnes City,57.52,127.01,61.23,124.74,312.98,Single-ply,SBD,M
Boys,59.87,6,Daniel Santana,San Marcos,58.6,115.67,61.23,136.08,312.98,Single-ply,SBD,M
Boys,59.87,7,Jesau Batres,Lockhart,58.79,111.13,54.43,102.06,267.62,Single-ply,SBD,M
Boys,67.13,1,Brandon Palomares,Seguin,66.68,215.46,111.13,217.72,544.31,Single-ply,SBD,M
Boys,67.13,2,Cody Elizalde,Seguin,65.14,172.37,99.79,190.51,462.66,Single-ply,SBD,M
Boys,67.13,3,Nathaniel Burnett,Lockhart,62.32,158.76,99.79,181.44,439.98,Single-ply,SBD,M
Boys,67.13,4,Chris Valazquez,Geronimo Navarro,65.77,161.03,102.06,156.49,419.57,Single-ply,SBD,M
Boys,67.13,5,Justin Jones,Universal City Randolph,60.33,117.93,88.45,149.69,356.07,Single-ply,SBD,M
Boys,67.13,6,Chandler Brill,Kyle Lehman,64.32,117.93,88.45,136.08,342.46,Single-ply,SBD,M
Boys,67.13,7,Thomas De La Iglesia,San Marcos,64.41,102.06,97.52,142.88,342.46,Single-ply,SBD,M
Boys,67.13,8,Josh Lucio-Salinas,San Marcos,66.68,111.13,70.31,149.69,331.12,Single-ply,SBD,M
Boys,67.13,9,Danny Villanueva,Kyle Lehman,66.22,113.4,77.11,124.74,315.25,Single-ply,SBD,M
Boys,67.13,10,Chris Lopez,San Marcos,63.05,92.99,61.23,124.74,278.96,Single-ply,SBD,M
Boys,74.84,1,Joseph Lopez #5,Kyle Lehman,74.84,176.9,113.4,188.24,478.54,Single-ply,SBD,M
Boys,74.84,2,William Reyna,Geronimo Navarro,72.57,165.56,106.59,190.51,462.66,Single-ply,SBD,M
Boys,74.84,3,Jared Cooper,Geronimo Navarro,68.95,167.83,106.59,179.17,453.59,Single-ply,SBD,M
Boys,74.84,4,Kekoa Engelman,Kyle Lehman,73.3,147.42,108.86,163.29,419.57,Single-ply,SBD,M
Boys,74.84,5,Isaiah Enriquez,Karnes City,74.84,151.95,86.18,170.1,408.23,Single-ply,SBD,M
Boys,74.84,6,Evan O'Berg,Universal City Randolph,68.4,142.88,83.91,154.22,381.02,Single-ply,SBD,M
Boys,74.84,7,Michael Stokes,Universal City Randolph,68.95,136.08,95.25,142.88,374.21,Single-ply,SBD,M
Boys,74.84,8,Nicholas Bourne,Karnes City,69.76,142.88,74.84,136.08,353.8,Single-ply,SBD,M
Boys,74.84,DQ,Jaron Denson,Karnes City,68.31,142.88,,,,Single-ply,SBD,M
Boys,82.1,1,Alex Rivas,Seguin,82.1,195.04,111.13,213.19,519.36,Single-ply,SBD,M
Boys,82.1,2,Devin Norman,Lockhart,78.74,181.44,124.74,192.78,498.95,Single-ply,SBD,M
Boys,82.1,3,Luis Rodriguez,Geronimo Navarro,80.74,179.17,124.74,183.7,487.61,Single-ply,SBD,M
Boys,82.1,4,Jacob Gonzales,Lockhart,80.01,176.9,102.06,206.38,485.34,Single-ply,SBD,M
Boys,82.1,5,Brent Gisler,Karnes City,76.57,174.63,124.74,174.63,474,Single-ply,SBD,M
Boys,82.1,6,Nick Lelii,Lockhart,79.83,161.03,120.2,154.22,435.45,Single-ply,SBD,M
Boys,82.1,7,Chris Aguirre,Buda Hays,80.65,161.03,102.06,140.61,403.7,Single-ply,SBD,M
Boys,82.1,8,Trevor Moczygemba,Poth,75.11,142.88,83.91,149.69,376.48,Single-ply,SBD,M
Boys,82.1,9,Nathan Bourne,Karnes City,80.29,142.88,74.84,147.42,365.14,Single-ply,SBD,M
Boys,82.1,10,Cody Lujan,San Marcos,80.65,113.4,72.57,170.1,356.07,Single-ply,SBD,M
Boys,89.81,1,Mitchell Rees,Karnes City,85.46,256.28,142.88,235.87,635.03,Single-ply,SBD,M
Boys,89.81,2,Jared Leal,Geronimo Navarro,89.36,226.8,122.47,247.21,596.47,Single-ply,SBD,M
Boys,89.81,3,JC Castillo,Seguin,89.72,213.19,154.22,217.72,585.13,Single-ply,SBD,M
Boys,89.81,4,Greg Rivera,Lockhart,84.37,181.44,120.2,217.72,519.36,Single-ply,SBD,M
Boys,89.81,5,Tre Moreno,Kyle Lehman,85.64,174.63,106.59,195.04,476.27,Single-ply,SBD,M
Boys,89.81,6,De'Angelo Sutton,Seguin,89.09,172.37,92.99,210.92,476.27,Single-ply,SBD,M
Boys,89.81,7,Jacob Trujillo,Universal City Randolph,89.81,172.37,113.4,181.44,467.2,Single-ply,SBD,M
Boys,89.81,8,Israel Romero,San Marcos,82.46,151.95,97.52,181.44,430.91,Single-ply,SBD,M
Boys,89.81,9,Eduardo Ventura,Kyle Lehman,86.64,154.22,108.86,167.83,430.91,Single-ply,SBD,M
Boys,89.81,10,Landen Brown,Lockhart,84.1,156.49,88.45,176.9,421.84,Single-ply,SBD,M
Boys,89.81,11,Tony Turrubiartes,Karnes City,88.9,149.69,102.06,161.03,412.77,Single-ply,SBD,M
Boys,89.81,12,John Kemp,Buda Hays,87.27,106.59,74.84,149.69,331.12,Single-ply,SBD,M
Boys,99.79,1,Abel Longoria,Kyle Lehman,98.07,222.26,156.49,233.6,612.35,Single-ply,SBD,M
Boys,99.79,2,Ryan Leal,Buda Hays,93.98,229.06,154.22,215.46,598.74,Single-ply,SBD,M
Boys,99.79,3,Rick Reyes,Buda Hays,93.44,215.46,138.35,215.46,569.26,Single-ply,SBD,M
Boys,99.79,4,Garrett Luensmann,Seguin,95.53,192.78,127.01,208.65,528.44,Single-ply,SBD,M
Boys,99.79,5,Sean Allen,Poth,93.17,170.1,127.01,167.83,464.93,Single-ply,SBD,M
Boys,99.79,6,Rawson Young,Geronimo Navarro,90.26,165.56,113.4,183.7,462.66,Single-ply,SBD,M
Boys,99.79,7,Joseph Medrano,San Marcos,95.44,151.95,79.38,181.44,412.77,Single-ply,SBD,M
Boys,99.79,8,Brandon Rangel,San Marcos,92.9,127.01,61.23,163.29,351.53,Single-ply,SBD,M
Boys,99.79,9,Deshaan Borders,Universal City Randolph,94.8,113.4,70.31,127.01,310.71,Single-ply,SBD,M
Boys,99.79,10,Justin Burnett,Buda Hays,93.35,83.91,54.43,102.06,240.4,Single-ply,SBD,M
Boys,99.79,DQ,Nicolas Williams,Buda Hays,92.26,113.4,72.57,,,Single-ply,SBD,M
Boys,109.77,1,Harley Ullrich,Seguin,104.33,208.65,151.95,210.92,571.53,Single-ply,SBD,M
Boys,109.77,2,Keane Davis,Seguin,106.5,204.12,124.74,217.72,546.58,Single-ply,SBD,M
Boys,109.77,3,Colton Barnett,Geronimo Navarro,104.33,204.12,124.74,215.46,544.31,Single-ply,SBD,M
Boys,109.77,4,David Sillero,Lockhart,108.5,174.63,124.74,142.88,442.25,Single-ply,SBD,M
Boys,109.77,5,Jonathan Luna,Universal City Randolph,104.33,138.35,90.72,138.35,367.41,Single-ply,SBD,M
Boys,109.77,6,Diego De Los Santos,San Marcos,107.23,136.08,79.38,142.88,358.34,Single-ply,SBD,M
Boys,124.74,1,Roman Ruiz,Lockhart,119.11,258.55,170.1,258.55,687.19,Single-ply,SBD,M
Boys,124.74,2,Seth Seale,Buda Hays,124.56,258.55,181.44,238.14,678.12,Single-ply,SBD,M
Boys,124.74,3,Tyler Howard,Geronimo Navarro,121.11,233.6,136.08,229.06,598.74,Single-ply,SBD,M
Boys,124.74,4,Brian Prickett,Kyle Lehman,124.38,217.72,147.42,210.92,576.06,Single-ply,SBD,M
Boys,124.74,5,Andrew Gaitan,Seguin,118.75,219.99,124.74,213.19,557.92,Single-ply,SBD,M
Boys,124.74,6,Ethan Garcia,Kyle Lehman,116.57,226.8,111.13,213.19,551.11,Single-ply,SBD,M
Boys,124.74,7,Louis Salamanca,Seguin,117.66,199.58,140.61,183.7,523.9,Single-ply,SBD,M
Boys,124.74,8,Dlyan Hatfield,Geronimo Navarro,122.47,199.58,127.01,174.63,501.22,Single-ply,SBD,M
Boys,124.74,9,Sabastian Goldsworthy,Universal City Randolph,123.01,181.44,113.4,204.12,498.95,Single-ply,SBD,M
Boys,124.74,10,Kyle Zaiontz,Poth,124.38,197.31,104.33,176.9,478.54,Single-ply,SBD,M
Boys,124.74,11,Cade Schwandner,Poth,114.85,165.56,102.06,183.7,451.32,Single-ply,SBD,M
Boys,124.74,12,Jace Gonzales,Karnes City,113.4,172.37,113.4,151.95,437.72,Single-ply,SBD,M
Boys,124.74+,1,Joshua Leal,Karnes City,132.72,235.87,158.76,235.87,630.49,Single-ply,SBD,M
Boys,124.74+,2,Zac Hostetter,Seguin,127.73,226.8,142.88,199.58,569.26,Single-ply,SBD,M
Boys,124.74+,3,Garrett Dietert,Geronimo Navarro,125.65,219.99,127.01,199.58,546.58,Single-ply,SBD,M
Boys,124.74+,4,Carlos Morales,Kyle Lehman,140.25,199.58,136.08,199.58,535.24,Single-ply,SBD,M
Boys,124.74+,5,Caleb Hargraves,Geronimo Navarro,149.23,192.78,131.54,156.49,480.81,Single-ply,SBD,M
