Place,Name,Division,Country,BodyweightKg,Squat1Kg,Squat2Kg,Squat3Kg,Best3SquatKg,Bench1Kg,Bench2Kg,Bench3Kg,Best3BenchKg,Deadlift1Kg,Deadlift2Kg,Deadlift3Kg,Best3DeadliftKg,TotalKg,WeightClassKg,Sex,Event,Equipment
1,Magdalena Giec,Juniorki do lat 20,Poland,52,-65,70,-75,70,47.5,-52.5,-52.5,47.5,100,102.5,107.5,107.5,225,52,F,SBD,Raw
1,Klaudia Szymczak,Juniorki do lat 20,Poland,55.2,80,87.5,98,98,45,50,55,55,105,110,117.5,117.5,270.5,57,F,SBD,Raw
1,Wioletta Sobczak,Juniorki do lat 20,Poland,58.5,95,100,-105,100,-50,50,-52.5,50,110,-117.5,-117.5,110,260,63,F,SBD,Raw
2,Dorota Tomaszewska,Juniorki do lat 20,Poland,62.9,65,-70,-70,65,45,47.5,50,50,105,110,115,115,230,63,F,SBD,Raw
3,Dominika Bachan,Juniorki do lat 20,Poland,60.2,70,-75,-75,70,35,40,-42.5,40,90,100,-105,100,210,63,F,SBD,Raw
4,Karolina Kowalska,Juniorki do lat 20,Poland,61,60,65,-70,65,30,35,-37.5,35,90,95,100,100,200,63,F,SBD,Raw
1,Natalia Talarska,Juniorki do lat 20,Poland,65.9,80,85,90,90,45,50,55,55,105,110,120,120,265,72,F,SBD,Raw
2,Adrianna Majewska,Juniorki do lat 20,Poland,67.3,80,85,-87.5,85,30,37.5,42.5,42.5,85,92.5,97.5,97.5,225,72,F,SBD,Raw
1,Klaudia Piosik,Juniorki do lat 20,Poland,77.3,80,90,95,95,-45,45,-47.5,45,90,105,115,115,255,84,F,SBD,Raw
2,Paulina Mibenge,Juniorki do lat 20,Poland,79.8,-75,80,87.5,87.5,45,50,-55,50,105,-112.5,115,115,252.5,84,F,SBD,Raw
1,Kinga Zukowska,Juniorki do lat 20,Poland,104.3,110,-120,120,120,60,65,67.5,67.5,-140,140,-168,140,327.5,84+,F,SBD,Raw
2,Zuzanna Majewska,Juniorki do lat 23,Poland,92.7,120,130,-137.5,130,50,55,-60,55,115,125,135,135,320,84+,F,SBD,Raw
3,Julia Leszczynska,Juniorki do lat 23,Poland,84.7,-75,80,85,85,30,35,-37.5,35,80,-90,95,95,215,84+,F,SBD,Raw
1,Klaudia Rusztyn,Juniorki do lat 23,Poland,51.8,87.5,92.5,97.5,97.5,52.5,-55,,52.5,140,145,148,148,298,52,F,SBD,Raw
2,Magdalena Giec,Juniorki do lat 23,Poland,52,-65,70,-75,70,47.5,-52.5,-53,47.5,100,102.5,107.5,107.5,225,52,F,SBD,Raw
3,Katarzyna Feledyn,Juniorki do lat 23,Poland,50,90,95,100,100,52.5,-55,-55,52.5,70,,,70,222.5,52,F,SBD,Raw
1,Malgorzata Kreiczman,Juniorki do lat 23,Poland,56.2,-60,-60,60,60,42.5,47.5,-50,47.5,110,120,125,125,232.5,57,F,SBD,Raw
2,Aleksandra Kantypowicz,Juniorki do lat 23,Poland,54.7,75,80,85,85,40,45,-47.5,45,-95,100,-110,100,230,57,F,SBD,Raw
1,Olga Ciborowska,Juniorki do lat 23,Poland,62.3,90,95,-100,95,50,-55,55,55,125,-135,135,135,285,63,F,SBD,Raw
2,Renata Barteczko,Juniorki do lat 23,Poland,60.8,87.5,92.5,95,95,47.5,50,-52.5,50,90,97.5,105,105,250,63,F,SBD,Raw
3,Inga Ganc,Juniorki do lat 23,Poland,62.2,80,87.5,-92.5,87.5,35,40,42.5,42.5,90,100,105,105,235,63,F,SBD,Raw
4,Dorota Tomaszewska,Juniorki do lat 23,Poland,62.9,65,-70,-70,65,45,47.5,50,50,105,110,115,115,230,63,F,SBD,Raw
1,Kamila Kasperska,Juniorki do lat 23,Poland,71.8,130,-140,-140,130,60,65,-70,65,145,-162.5,162.5,162.5,357.5,72,F,SBD,Raw
2,Natalia Wloszczyk,Juniorki do lat 23,Poland,68.7,110,120,-125,120,-80,80,-85,80,155,-165,-165,155,355,72,F,SBD,Raw
3,Joanna Gaczol,Juniorki do lat 23,Poland,65.7,90,100,-110,100,57.5,60,-65,60,115,120,125,125,285,72,F,SBD,Raw
4,Magdalena Domaradzka,Juniorki do lat 23,Poland,65.7,75,85,-87.5,85,55,-60,-60,55,110,-120,120,120,260,72,F,SBD,Raw
1,Klaudia Piosik,Juniorki do lat 23,Poland,77.3,80,90,95,95,-45,45,-47.5,45,90,105,115,115,255,84,F,SBD,Raw
1,Karolina Ruta,Juniorki do lat 23,Poland,85.8,-115,120,127.5,127.5,50,60,65,65,145,155,160,160,352.5,84+,F,SBD,Raw
2,Marta Drozdziel,Juniorki do lat 23,Poland,89.8,-140,145,-150,145,40,45,47.5,47.5,140,152.5,-160,152.5,345,84+,F,SBD,Raw
3,Kinga Zukowska,Juniorki do lat 23,Poland,104.3,110,-120,120,120,60,65,67.5,67.5,-140,140,-168,140,327.5,84+,F,SBD,Raw
1,Alicia Urbaniak,Seniorki,Poland,46.5,55,60,-65,60,50,-51,51,51,90,95,97.5,97.5,208.5,47,F,SBD,Raw
2,Patrycja Nowak,Seniorki,Poland,45.4,50,57.5,62.5,62.5,35,40,-42.5,40,90,100,-107.5,100,202.5,47,F,SBD,Raw
1,Klaudia Rusztyn,Seniorki,Poland,51.8,87.5,92.5,97.5,97.5,52.5,-55,,52.5,140,145,148,148,298,52,F,SBD,Raw
2,Ewa Mioduszewska,Seniorki,Poland,51.2,90,100,-102.5,100,45,50,-52.5,50,140,145,-149,145,295,52,F,SBD,Raw
3,Katarzyna Synak,Seniorki,Poland,51.3,90,100,-105,100,52.5,55.5,57.5,57.5,120,125,-137.5,125,282.5,52,F,SBD,Raw
4,Patrycja Jurga-Murcha,Seniorki,Poland,51,85,-92.5,-92.5,85,50,-52.5,-52.5,50,130,-142.5,-147.5,130,265,52,F,SBD,Raw
5,Joanna Stankowska,Seniorki,Poland,52,65,75,-80,75,35,-40,40,40,75,85,95,95,210,52,F,SBD,Raw
6,Monika Jaroszek,Seniorki,Poland,51.4,57.5,-62.5,-62.5,57.5,32.5,35,-37.5,35,80,90,97.5,97.5,190,52,F,SBD,Raw
1,Małgorzata Laska,Seniorki,Poland,55.9,100,105,-108,105,55,60,-63,60,120,130,-141,130,295,57,F,SBD,Raw
2,Karolina Staszewska,Seniorki,Poland,56.8,95,100,-102.5,100,55,57.5,-60,57.5,-120,125,130,130,287.5,57,F,SBD,Raw
3,Madlena Kratiuk,Seniorki,Poland,52.1,82.5,-87.5,87.5,87.5,52.5,57.5,62.5,62.5,110,120,125,125,275,57,F,SBD,Raw
4,Magdalena Błach,Seniorki,Poland,55,97.5,100,-102.5,100,-55,-55,55,55,120,-130,-130,120,275,57,F,SBD,Raw
5,Iwona Mazur-Żmuda,Seniorki,Poland,56.3,82.5,-87.5,87.5,87.5,40,-42.5,-42.5,40,110,115,120,120,247.5,57,F,SBD,Raw
6,Aleksandra Kantypowicz,Seniorki,Poland,54.7,75,80,85,85,40,45,-47.5,45,-95,100,-110,100,230,57,F,SBD,Raw
7,Magdalena Wojtkowska,Seniorki,Poland,55.9,65,72.5,-77.5,72.5,42.5,47.5,-52.5,47.5,80,90,-100,90,210,57,F,SBD,Raw
1,Emilia Sobiech-Konopa,Seniorki,Poland,61.6,115,120,-123,120,57.5,62.5,-65,62.5,127.5,135,-140,135,317.5,63,F,SBD,Raw
2,Olga Ciborowska,Seniorki,Poland,62.3,90,95,-100,95,50,-55,55,55,125,-135,135,135,285,63,F,SBD,Raw
3,Agnieszka Tuczykont,Seniorki,Poland,61.8,70,80,-90,80,92.5,97.5,-100.5,97.5,80,90,97.5,97.5,275,63,F,SBD,Raw
4,Magdalena Misiek,Seniorki,Poland,62.8,85,90,-95,90,40,-42.5,-42.5,40,100,102.5,-115,102.5,232.5,63,F,SBD,Raw
1,Kamila Kasperska,Seniorki,Poland,71.8,130,-140,-140,130,60,65,-70,65,145,-162.5,162.5,162.5,357.5,72,F,SBD,Raw
2,Natalia Wloszczyk,Seniorki,Poland,68.7,110,120,-125,120,-80,80,-85,80,155,-165,-165,155,355,72,F,SBD,Raw
3,Marzena Janzer,Seniorki,Poland,70.2,90,102.5,-110,102.5,75,80,82.5,82.5,115,125,135,135,320,72,F,SBD,Raw
4,Katarzyna Karus,Seniorki,Poland,67.9,90,100,-110,100,55,62.5,-65,62.5,120,130,-135,130,292.5,72,F,SBD,Raw
5,Joanna Gaczol,Seniorki,Poland,65.7,90,-100,100,100,57.5,60,-65,60,115,120,125,125,285,72,F,SBD,Raw
1,Marzena Wierzbicka,Seniorki,Poland,74.1,150,160,-165,160,90,95.5,-96.5,95.5,185,200,-205,200,455.5,84,F,SBD,Raw
2,Agnieszka Korycka,Seniorki,Poland,80.8,110,120,125,125,52.5,57.5,-60,57.5,115,130,-140,130,312.5,84,F,SBD,Raw
1,Karolina Ruta,Seniorki,Poland,85.8,-115,120,127.5,127.5,50,60,65,65,145,155,160,160,352.5,84+,F,SBD,Raw
2,Iwona Karwowska,Seniorki,Poland,84.9,-120,120,135,135,70,-75,75,75,140,-150,-150,140,350,84+,F,SBD,Raw
3,Kinga Zukowska,Seniorki,Poland,104.3,110,-120,120,120,60,65,67.5,67.5,-140,140,-168,140,327.5,84+,F,SBD,Raw
1,Marzena Janzer,Weteranki,Poland,70.2,90,102.5,-110,102.5,75,80,82.5,82.5,115,125,135,135,320,,F,SBD,Raw
2,Iwona Mazur-Żmuda,Weteranki,Poland,56.3,82.5,-87.5,87.5,87.5,40,-42.5,-42.5,40,110,115,120,120,247.5,,F,SBD,Raw
1,Damian Krasucki,Juniorki do lat 20,Poland,52.2,85,95,-105,95,80,85,-87.5,85,110,120,130,130,310,53,M,SBD,Raw
2,Filip Jurewicz,Juniorki do lat 20,Poland,48.1,70,80,87.5,87.5,47.5,52.5,55,55,110,120,130,130,272.5,53,M,SBD,Raw
3,Karol Krupiński,Juniorki do lat 20,Poland,52.5,60,70,77.5,77.5,45,50,52.5,52.5,105,115,125,125,255,53,M,SBD,Raw
4,Cezary Dąbrowski,Juniorki do lat 20,Poland,50.7,50,60,-65,60,30,35,-37.5,35,105,115,117.5,117.5,212.5,53,M,SBD,Raw
1,Kacper Drochomirecki,Juniorki do lat 20,Poland,58.6,115,125,132.5,132.5,75,80,82.5,82.5,120,132.5,142.5,142.5,357.5,59,M,SBD,Raw
2,Michał Skonieczny,Juniorki do lat 20,Poland,58.2,-95,95,97.5,97.5,75,80,82.5,82.5,125,132.5,140,140,320,59,M,SBD,Raw
3,Michał Anuszek,Juniorki do lat 20,Poland,55.6,90,100,107.5,107.5,55,60,65,65,-115,115,122.5,122.5,295,59,M,SBD,Raw
4,Patryk Kalman,Juniorki do lat 20,Poland,57.6,75,80,-90,80,-60,60,65,65,100,107.5,115,115,260,59,M,SBD,Raw
1,Łukasz Dettlaff,Juniorki do lat 20,Poland,65.8,155,166,172.5,172.5,110,115,117.5,117.5,185,200,210.5,210.5,500.5,66,M,SBD,Raw
2,Kamil Dec,Juniorki do lat 20,Poland,65.6,150,160,165.5,165.5,100,105,-112.5,105,165,175,185,185,455.5,66,M,SBD,Raw
3,Kacper Drzeżdżon,Juniorki do lat 20,Poland,62.5,120,127.5,132.5,132.5,85,90,-92.5,90,155,160,165,165,387.5,66,M,SBD,Raw
4,Maciej Wiącek,Juniorki do lat 20,Poland,65.7,110,120,130,130,80,85,87.5,87.5,145,162.5,167.5,167.5,385,66,M,SBD,Raw
5,Waldemar Lorek,Juniorki do lat 20,Poland,63.3,-105,105,110,110,65,70,75,75,-130,130,140,140,325,66,M,SBD,Raw
6,Mateusz Widz,Juniorki do lat 20,Poland,65.5,115,117.5,120,120,55,60,65,65,125,135,-142.5,135,320,66,M,SBD,Raw
7,Pawel Szarafinski,Juniorki do lat 20,Poland,65.1,110,115,120,120,55,60,65,65,120,125,132.5,132.5,317.5,66,M,SBD,Raw
8,Mariusz Lewoń,Juniorki do lat 20,Poland,65.2,80,90,-92.5,90,50,55,57.5,57.5,107.7,,,107.7,255.2,66,M,SBD,Raw
1,Szymon Glowienke,Juniorki do lat 20,Poland,73.6,165,175,-181,175,120,125,-130.5,125,-185,190,215,215,515,74,M,SBD,Raw
2,Tomasz Kwiatkowski,Juniorki do lat 20,Poland,73.2,-175,175,-182.5,175,107.5,115,117.5,117.5,215,220,-222.5,220,512.5,74,M,SBD,Raw
3,Mariusz Brito,Juniorki do lat 20,Poland,72.6,140,150,160,160,100,-110,-110,100,-190,190,202.5,202.5,462.5,74,M,SBD,Raw
4,Michał Twardowski,Juniorki do lat 20,Poland,71.4,165,172.5,-177.5,172.5,100,107.5,-112.5,107.5,160,170,-185,170,450,74,M,SBD,Raw
5,Jarosław Stefanowicz,Juniorki do lat 20,Poland,70.5,145,155,-160,155,95,-100,100,100,160,170,175,175,430,74,M,SBD,Raw
6,Łukasz Filipek,Juniorki do lat 20,Poland,69.8,135,147.5,157.5,157.5,90,-95,-95,90,140,150,165,165,412.5,74,M,SBD,Raw
7,Karol Nowicki,Juniorki do lat 20,Poland,73.3,115,120,125,125,80,85,87.5,87.5,140,150,155,155,367.5,74,M,SBD,Raw
8,Dominik Tchurzewski,Juniorki do lat 20,Poland,73.2,90,105,120,120,-50,60,-65,60,100,120,130,130,310,74,M,SBD,Raw
1,Mariusz Hintzke,Juniorki do lat 20,Poland,82.7,170,175,182.5,182.5,-175,175,-180,175,180,187.5,195,195,552.5,83,M,SBD,Raw
2,Patryk Romańczuk,Juniorki do lat 20,Poland,78.1,-155,155,165,165,100,107.5,-112.5,107.5,200,217.5,225,225,497.5,83,M,SBD,Raw
3,Marcin Busz,Juniorki do lat 20,Poland,81.1,160,167.5,172.5,172.5,125,-130,-132.5,125,180,192.5,200,200,497.5,83,M,SBD,Raw
4,Piotr Wóitowicz-Pitek,Juniorki do lat 20,Poland,81.6,150,-160,165,165,90,-95,-95,90,185,200,212.5,212.5,467.5,83,M,SBD,Raw
5,Grzegorz Dziadzio,Juniorki do lat 20,Poland,80.2,155,160,-165,160,95,-100,-100,95,180,195,210,210,465,83,M,SBD,Raw
6,Jacek Kaszycki,Juniorki do lat 20,Poland,81.7,140,145,-152.5,145,100,-102.5,102.5,102.5,175,180,185,185,432.5,83,M,SBD,Raw
7,Sebastian Kolasa,Juniorki do lat 20,Poland,80.5,135,145,150,150,80,85,-90,85,160,170,180,180,415,83,M,SBD,Raw
8,Paweł Rekowski,Juniorki do lat 20,Poland,80.7,90,95,100,100,95,-100,-100,95,130,142.5,150,150,345,83,M,SBD,Raw
1,Dawid Zaniewski,Juniorki do lat 20,Poland,92.5,190,200,205,205,145,150,-152.5,150,235,242.5,245,245,600,93,M,SBD,Raw
2,Adrian Kieblesz,Juniorki do lat 20,Poland,86.8,195,205,212.5,212.5,140,145,-150,145,220,232.5,240,240,597.5,93,M,SBD,Raw
3,Dawid Kozłowski,Juniorki do lat 20,Poland,88.1,210,-217.5,-217.5,210,145,-150,-150,145,210,217.5,-227.5,217.5,572.5,93,M,SBD,Raw
4,Marcin Budek,Juniorki do lat 20,Poland,89.2,190,205,-210,205,115,-120,120,120,220,240,-251.5,240,565,93,M,SBD,Raw
5,Dominik Derlatka,Juniorki do lat 20,Poland,88,180,190,200,200,120,-130,-135,120,190,205,220,220,540,93,M,SBD,Raw
6,Michal Flamholc,Juniorki do lat 20,Poland,91,190,202.5,-211.5,202.5,115,-120,-120,115,205,-215,-215,205,522.5,93,M,SBD,Raw
7,Filip Glura,Juniorki do lat 20,Poland,92.9,-165,165,175,175,115,125,-130,125,210,220,-225,220,520,93,M,SBD,Raw
8,Maciei Kopacewicz,Juniorki do lat 20,Poland,83.4,-150,150,-160,150,115,120,-125,120,220,-230,-230,220,490,93,M,SBD,Raw
9,Grzegorz Sidorowicz,Juniorki do lat 20,Poland,87.5,160,170,-175,170,100,-107.5,-107.5,100,210,217.5,-225,217.5,487.5,93,M,SBD,Raw
10,Andrzej Woźniak,Juniorki do lat 20,Poland,92,170,182.5,-192.5,182.5,95,100,102.5,102.5,180,192.5,-202.5,192.5,477.5,93,M,SBD,Raw
11,Martin Jasnos,Juniorki do lat 20,Poland,89.2,-140,140,-150,140,110,115,-120,115,170,190,200,200,455,93,M,SBD,Raw
12,Cezary Swiderek,Juniorki do lat 20,Poland,89.2,135,145,-150,145,80,-87.5,-87.5,80,165,-175,180,180,405,93,M,SBD,Raw
1,Karol Biziewski,Juniorki do lat 20,Poland,101,190,200,210,210,150,160,170,170,260,270,280,280,660,105,M,SBD,Raw
2,Karol Piecyk,Juniorki do lat 20,Poland,99.6,130,145,155,155,135,145,-150,145,170,190,210,210,510,105,M,SBD,Raw
3,Jonasz Pludowski,Juniorki do lat 20,Poland,104.3,170,180,-190,180,90,100,-105,100,220,230,-232.5,230,510,105,M,SBD,Raw
4,Krzysztof Ślepowroński,Juniorki do lat 20,Poland,95.2,140,150,-162.5,150,85,92.5,-100,92.5,180,200,-210,200,442.5,105,M,SBD,Raw
1,Hubert Dudziak,Juniorki do lat 20,Poland,119.2,230,245,250,250,130,137.5,-142.5,137.5,230,240,250,250,637.5,120,M,SBD,Raw
2,Patryk Korczyński,Juniorki do lat 20,Poland,117.1,200,210,215,215,155,-160,-160,155,240,255,-267.5,255,625,120,M,SBD,Raw
3,Maciei Bracik,Juniorki do lat 20,Poland,109.6,190,200,207.5,207.5,125,130,135,135,210,220,225,225,567.5,120,M,SBD,Raw
1,Zbigniew Zubrzycki,Juniorki do lat 20,Poland,145.9,180,-220,-225,180,115,125,-135,125,200,220,255,255,560,120+,M,SBD,Raw
1,Filip Jurewicz,Juniorki do lat 23,Poland,48.1,70,80,87.5,87.5,47.5,52.5,55,55,110,120,130,130,272.5,53,M,SBD,Raw
2,Karol Krupiński,Juniorki do lat 23,Poland,52.5,60,70,77.5,77.5,45,50,52.5,52.5,105,115,125,125,255,53,M,SBD,Raw
3,Cezary Dąbrowski,Juniorki do lat 23,Poland,50.7,50,60,-65,60,30,35,-37.5,35,105,115,117.5,117.5,212.5,53,M,SBD,Raw
1,Stanislaw Wrobel,Juniorki do lat 23,Poland,57.9,130,135,-140,135,80,-85,85,85,170,180,-192.5,180,400,59,M,SBD,Raw
2,Michał Barszczewski,Juniorki do lat 23,Poland,54.7,-90,90,-100,90,40,47.5,-52.5,47.5,120,135,140,140,277.5,59,M,SBD,Raw
DQ,Tomasz Koterba,Juniorki do lat 23,Poland,58.6,-130,-130,-130,,-80,80,85,85,-130,130,150,150,,59,M,SBD,Raw
1,Łukasz Dettlaff,Juniorki do lat 23,Poland,65.8,155,166,172.5,172.5,110,115,117.5,117.5,185,200,210.5,210.5,500.5,66,M,SBD,Raw
2,Mariusz Lewoń,Juniorki do lat 23,Poland,65.2,80,90,-92.5,90,50,55,57.5,57.5,107.5,,,107.5,255,66,M,SBD,Raw
DQ,Piotr Szumiata,Juniorki do lat 23,Poland,65.6,-145,-145,-145,,,,,,,,,,,66,M,SBD,Raw
1,Maciei Humanowski,Juniorki do lat 23,Poland,73.2,170,175,-180,175,-125,125,-130,125,210,220,222.5,222.5,522.5,74,M,SBD,Raw
2,Mateusz Pacia,Juniorki do lat 23,Poland,72.6,170,182.5,190,190,107.5,-115,-115,107.5,205,215,222.5,222.5,520,74,M,SBD,Raw
3,Boadan Roiek,Juniorki do lat 23,Poland,72.9,-150,155,165,165,-135,-135,135,135,195,-212.5,-212.5,195,495,74,M,SBD,Raw
4,Dawid Nascimento,Juniorki do lat 23,Poland,71.4,140,147.5,150,150,85,90,95,95,160,170,-180,170,415,74,M,SBD,Raw
5,Dominik Tchurzewski,Juniorki do lat 23,Poland,73.2,90,105,120,120,-50,60,-65,60,100,120,130,130,310,74,M,SBD,Raw
1,Piotr Jabłonski,Juniorki do lat 23,Poland,82.4,230,-235,235,235,175,180,-183,180,235,250,-252.5,250,665,83,M,SBD,Raw
2,Marcin Kapała,Juniorki do lat 23,Poland,82.5,210,225,-235.5,225,120,122.5,130,130,230,257.5,-270,257.5,612.5,83,M,SBD,Raw
3,Felicjan Goyke,Juniorki do lat 23,Poland,77.5,180,200,205,205,140,147.5,152.5,152.5,200,220,-227.5,220,577.5,83,M,SBD,Raw
4,Mariusz Hintzke,Juniorki do lat 23,Poland,82.7,170,175,182.5,182.5,-175,175,-180,175,180,187.5,195,195,552.5,83,M,SBD,Raw
5,Wiktor Janaszak,Juniorki do lat 23,Poland,79.6,150,160,170,170,100,110,-115,110,190,-210,-210,190,470,83,M,SBD,Raw
6,Tomasz Tomaszewski,Juniorki do lat 23,Poland,78.2,85,87.5,95,95,90,95,-100,95,140,145,152.5,152.5,342.5,83,M,SBD,Raw
1,Kamil Krakowiak,Juniorki do lat 23,Poland,91.3,205,-220,220,220,130,140,145,145,245,260,275,275,640,93,M,SBD,Raw
2,Albert Potocki,Juniorki do lat 23,Poland,91.9,225,-230,,225,140,147.5,-152.5,147.5,230,-235,-235,230,602.5,93,M,SBD,Raw
3,Michał Dzwonkowski,Juniorki do lat 23,Poland,92.7,210,217.5,-225,217.5,135,-142.5,-142.5,135,235,-240,-240,235,587.5,93,M,SBD,Raw
4,Tomasz Domański,Juniorki do lat 23,Poland,91.9,200,215,225,225,132.5,-135,-135,132.5,210,220,225,225,582.5,93,M,SBD,Raw
5,Dawid Kozłowski,Juniorki do lat 23,Poland,88.1,210,-217.5,-217.5,210,145,-150,-150,145,210,217.5,-227.5,217.5,572.5,93,M,SBD,Raw
6,Arkadiusz Szymoniak,Juniorki do lat 23,Poland,92.1,-160,-160,160,160,120,125,127.5,127.5,235,250,-260,250,537.5,93,M,SBD,Raw
7,Mateusz Zywiolowski,Juniorki do lat 23,Poland,92.1,170,180,-190,180,115,120,-125,120,215,230,-237.5,230,530,93,M,SBD,Raw
8,Filip Glura,Juniorki do lat 23,Poland,92.9,-165,165,175,175,115,125,-130,125,210,220,-225,220,520,93,M,SBD,Raw
9,Karol Grabowski,Juniorki do lat 23,Poland,86.4,150,160,-165,160,130,135,-140,135,200,210,-220,210,505,93,M,SBD,Raw
10,Lukasz Przystasz,Juniorki do lat 23,Poland,85.6,110,125,135,135,90,-95,-95,90,180,-190,190,190,415,93,M,SBD,Raw
11,Cezary Swiderek,Juniorki do lat 23,Poland,89.2,135,145,-150,145,80,-87.5,-87.5,80,165,-175,180,180,405,93,M,SBD,Raw
1,Adam Szymanski,Juniorki do lat 23,Poland,104.2,240,-250,250,250,140,150,-155,150,240,255,265,265,665,105,M,SBD,Raw
2,Krzysztof Kluczny,Juniorki do lat 23,Poland,100.7,190,205,215,215,155,162.5,165,165,-240,255,262.5,262.5,642.5,105,M,SBD,Raw
3,Maciei Stepniak,Juniorki do lat 23,Poland,103,200,210,215,215,160,-167.5,167.5,167.5,-260,260,-282.5,260,642.5,105,M,SBD,Raw
4,Sławomir Sidorowicz,Juniorki do lat 23,Poland,101.9,200,-220,-220,200,160,-167.5,167.5,167.5,240,250,260,260,627.5,105,M,SBD,Raw
5,Rafał Kanas,Juniorki do lat 23,Poland,103.1,210,220,225,225,-160,-160,160,160,215,225,-252.5,225,610,105,M,SBD,Raw
6,Rafal Gawart,Juniorki do lat 23,Poland,104.8,195,-210,210,210,155,160,-162.5,160,210,225,237.5,237.5,607.5,105,M,SBD,Raw
7,Dawid Staszuk,Juniorki do lat 23,Poland,98.4,155,162.5,172.5,172.5,152.5,-160,-160,152.5,200,210,225,225,550,105,M,SBD,Raw
8,Jonasz Pługowski,Juniorki do lat 23,Poland,104.3,170,180,-190,180,90,100,-105,100,220,230,-232.5,230,510,105,M,SBD,Raw
9,Krzysztof Ślepowroński,Juniorki do lat 23,Poland,95.2,140,150,-162.5,150,85,92.5,-100,92.5,180,200,-210,200,442.5,105,M,SBD,Raw
1,Piotr Sadowski #1,Juniorki do lat 23,Poland,117.4,-265,270,-280.5,270,-190.5,190.5,-200,190.5,280,-295,295,295,755.5,120,M,SBD,Raw
2,Maciei Bancer,Juniorki do lat 23,Poland,118.2,230,240,250,250,140,152.5,160,160,240,242.5,250,250,660,120,M,SBD,Raw
3,Hubert Dudziak,Juniorki do lat 23,Poland,119.2,230,245,250,250,130,137.5,-142.5,137.5,230,240,250,250,637.5,120,M,SBD,Raw
4,Patryk Korczyński,Juniorki do lat 23,Poland,117.1,200,210,215,215,155,-160,-160,155,240,255,-267.5,255,625,120,M,SBD,Raw
5,Jakub Olechowski,Juniorki do lat 23,Poland,106.9,205,-215,-215,205,135,142.5,147.5,147.5,-220,220,237.5,237.5,590,120,M,SBD,Raw
6,Łukasz Doruch,Juniorki do lat 23,Poland,109.9,170,-175,175,175,155,160,165,165,245,250,-255,250,590,120,M,SBD,Raw
7,Marcin Kozłowski,Juniorki do lat 23,Poland,108.1,150,160,170,170,115,125,-132.5,125,210,220,230,230,525,120,M,SBD,Raw
1,Dominik Nadolski,Juniorki do lat 23,Poland,136.8,220,235,250,250,145,155,165,165,220,240,-260,240,655,120+,M,SBD,Raw
2,Zbianiew Zubrzycki,Juniorki do lat 23,Poland,145.9,180,-220,-225,180,115,125,-135,125,200,220,255,255,560,120+,M,SBD,Raw
3,Lukasz Mikulski,Juniorki do lat 23,Poland,120.3,145,152.5,160,160,117.5,125,130,130,170,185,200,200,490,120+,M,SBD,Raw
1,Dariusz Wszoła,Seniorki,Poland,58.9,185,195,202.5,202.5,-140,145,150.5,150.5,180,190,200,200,553,59,M,SBD,Raw
2,Jakub Synak,Seniorki,Poland,58.5,135,145,-150,145,90,92.5,95,95,170,185,-200,185,425,59,M,SBD,Raw
3,Adam Abramczuk,Seniorki,Poland,58.3,130,140,147.5,147.5,85,-90,90,90,155,167.5,175,175,412.5,59,M,SBD,Raw
4,Stanislaw Wrobel,Seniorki,Poland,57.9,130,135,-140,135,80,-85,85,85,170,180,-192.5,180,400,59,M,SBD,Raw
1,Mariusz Grotkowski,Seniorki,Poland,65.5,-200,200,-205,200,130,135,-140,135,210,-220,-220,210,545,66,M,SBD,Raw
2,Szymon Jonczak,Seniorki,Poland,65.6,165,-172.5,-172.5,165,-130,140,-145,140,-185,200,-217.5,200,505,66,M,SBD,Raw
3,Grzegorz Uziełło,Seniorki,Poland,65.4,160,-165,165,165,100,105,-107.5,105,205,212,217.5,217.5,487.5,66,M,SBD,Raw
4,Piotr Markiewicz,Seniorki,Poland,65,147,155,162.5,162.5,95,100,-102.5,100,190,200,205,205,467.5,66,M,SBD,Raw
5,Andrzej Kropiwnicki,Seniorki,Poland,65.2,170,177.5,-185,177.5,92.5,100,-105,100,180,190,-200,190,467.5,66,M,SBD,Raw
6,Dawid Kluczyńśki,Seniorki,Poland,65.2,155,-165,-165,155,110,-115,115,115,185,-195,-200,185,455,66,M,SBD,Raw
1,Piotr Jakimiuk,Seniorki,Poland,74,222.5,230,-240,230,155,160,-162.5,160,240,252.5,-260.5,252.5,642.5,74,M,SBD,Raw
2,Artur Giczan,Seniorki,Poland,73.5,230,-240,-240,230,-130,130,-137.5,130,240,255,-261.5,255,615,74,M,SBD,Raw
3,Kamil Świątek,Seniorki,Poland,72.2,190,197.5,205,205,122.5,127.5,132.5,132.5,-220,225,240,240,577.5,74,M,SBD,Raw
4,Tomasz Miloch,Seniorki,Poland,72.4,182.5,-190,-190,182.5,135,-137.5,-137.5,135,-235,235,-262.5,235,552.5,74,M,SBD,Raw
5,Włodzimierz Żmijewski,Seniorki,Poland,72.3,190,205,212.5,212.5,70,-72.5,-75,70,230,250,-263,250,532.5,74,M,SBD,Raw
6,Boadan Roiek,Seniorki,Poland,72.9,-150,155,165,165,-135,-135,135,135,195,-212.5,-212.5,195,495,74,M,SBD,Raw
7,Dawid Nascimento,Seniorki,Poland,71.4,140,147.5,150,150,85,90,95,95,160,170,-180,170,415,74,M,SBD,Raw
1,Łukasz Matwin,Seniorki,Poland,81.9,190,205,210,210,145,150,-152.5,150,280,285,305,305,665,83,M,SBD,Raw
2,Piotr Jabłonski,Seniorki,Poland,82.4,230,-235,235,235,175,180,-183,180,235,250,-252.5,250,665,83,M,SBD,Raw
3,Kamil Wojciechowski,Seniorki,Poland,81.8,200,210,215,215,185,-192,-192.5,185,230,240,250,250,650,83,M,SBD,Raw
4,Marek Zytka,Seniorki,Poland,80.7,190,215,-222.5,215,150,155,-157.5,155,240,250,-280,250,620,83,M,SBD,Raw
5,Marcin Kapała,Seniorki,Poland,82.5,210,225,-235.5,225,112.5,120,130,130,230,257.5,-270,257.5,612.5,83,M,SBD,Raw
6,Mateusz Rufkiewicz,Seniorki,Poland,82,-180,180,190,190,160,167.5,-170,167.5,220,240,252.5,252.5,610,83,M,SBD,Raw
7,Marcin Helwig,Seniorki,Poland,82,202.5,-210,-210,202.5,157.5,-165,-165,157.5,225,235,245,245,605,83,M,SBD,Raw
8,Krzysztof Kaczmarek,Seniorki,Poland,82.7,220,-230,-230,220,-135,-135,135,135,240,250,,250,605,83,M,SBD,Raw
9,Daniel Cieplak,Seniorki,Poland,82.8,175,-182.5,182.5,182.5,145,-150,-150,145,215,225,-230,225,552.5,83,M,SBD,Raw
10,Damian Borzyszkowski,Seniorki,Poland,82.2,167.5,175,180,180,122.5,127.5,-132.5,127.5,117.5,225,-230,225,532.5,83,M,SBD,Raw
11,Jakub Krawiec,Seniorki,Poland,81.9,155,165,-170,165,145,-152.5,-152.5,145,200,-210,-210,200,510,83,M,SBD,Raw
12,Filip Smetek,Seniorki,Poland,75.9,125,-130,-132.5,125,95,-100,-100,95,160,170,-180,170,390,83,M,SBD,Raw
DQ,Sławomir Litkowiec,Seniorki,Poland,81.3,200,-210,-210,200,-160,-160,-160,,,,,,,83,M,SBD,Raw
1,Krzysztof Wierzbicki,Seniorki,Poland,92.6,250,265.5,270,270,175,182.5,,182.5,350,-370.5,,350,802.5,93,M,SBD,Raw
2,Michał Kempys,Seniorki,Poland,90.9,235,245,-252.5,245,-150,150,155,155,280,295,305,305,705,93,M,SBD,Raw
3,Mariusz Snarski,Seniorki,Poland,92.4,242.5,257.5,-262.5,257.5,160,167.5,-172.2,167.5,255,270,-280,270,695,93,M,SBD,Raw
4,Tomasz Rumiński,Seniorki,Poland,92.4,215,225,230,230,160,-167.5,-167.5,160,250,265,275,275,665,93,M,SBD,Raw
5,Kamil Krakowiak,Seniorki,Poland,91.3,205,-220,220,220,130,140,145,145,245,260,275,275,640,93,M,SBD,Raw
6,Dawid Pelc,Seniorki,Poland,91.6,205,-215,-215,205,-175,175,-180,175,260,-270,-270,260,640,93,M,SBD,Raw
7,Konrad Obrzut,Seniorki,Poland,92.3,200,210,215,215,160,165,-170,165,250,260,-265,260,640,93,M,SBD,Raw
8,Pawel Modzelewski,Seniorki,Poland,91.1,205,215,-225,215,-147.5,147.5,-150,147.5,220,235,240,240,602.5,93,M,SBD,Raw
9,Albert Potocki,Seniorki,Poland,91.9,225,-230,,225,140,147.5,-152.5,147.5,230,-235,-235,230,602.5,93,M,SBD,Raw
10,Michał Dzwonkowski,Seniorki,Poland,92.7,210,217.5,-225,217.5,135,-142.5,-142.5,135,235,-240,-240,235,587.5,93,M,SBD,Raw
11,Paweł Przybyłowicz,Seniorki,Poland,91.1,180,-195,-195,180,145,155,-165,155,220,235,-245,235,570,93,M,SBD,Raw
12,Woiciech Wachowiak,Seniorki,Poland,86.4,190,200,-210,200,140,-145,-145,140,210,-220,-220,210,550,93,M,SBD,Raw
13,Lukasz Brenski,Seniorki,Poland,85.3,185,200,-207.5,200,115,120,122.5,122.5,190,205,212.5,212.5,535,93,M,SBD,Raw
14,Adrian Kapusta,Seniorki,Poland,91.5,-180,180,195,195,95,100,-110,100,190,205,215,215,510,93,M,SBD,Raw
15,Andrzej Sibik,Seniorki,Poland,90.3,160,172.5,-180,172.5,107.5,112.5,-117.5,112.5,190,200,205,205,490,93,M,SBD,Raw
16,Michal Gaiewski,Seniorki,Poland,86.8,150,160,-165,160,110,117.5,120,120,180,190,200,200,480,93,M,SBD,Raw
17,Dawid Kozłowski,Seniorki,Poland,90.1,120,-130,130,130,95,100,107.5,107.5,145,155,-165,155,392.5,93,M,SBD,Raw
DQ,Bartłomiej Bałdyga,Seniorki,Poland,92.3,232.5,240,-242.5,240,-145,-145,-145,,-252.5,-252.5,,,,93,M,SBD,Raw
1,Sebastian Kot,Seniorki,Poland,103.1,285,-290,,285,190,-195,-195,190,310,322.5,-325,322.5,797.5,105,M,SBD,Raw
2,Karol Drzymalski,Seniorki,Poland,102.3,260,270,280,280,210,217.5,-220,217.5,280,290,-300,290,787.5,105,M,SBD,Raw
3,Marcin Goleń,Seniorki,Poland,104,250,260,-265,260,180,190,195,195,300,320,-335,320,775,105,M,SBD,Raw
4,Szczepan Zimmermann,Seniorki,Poland,101.1,235,245,-255,245,150,155,160,160,270,-280,-280,270,675,105,M,SBD,Raw
5,Maciei Stepniak,Seniorki,Poland,103,200,210,215,215,160,-167.5,167.5,167.5,-260,260,-282.5,260,642.5,105,M,SBD,Raw
6,Krzysztof Paierczak,Seniorki,Poland,100.5,200,212.5,220,220,125,135,142.5,142.5,210,230,245,245,607.5,105,M,SBD,Raw
7,Radosław Wałęga,Seniorki,Poland,104.3,180,190,200,200,145,150,-152.5,150,190,210,225,225,575,105,M,SBD,Raw
8,Krzysztof Cybartowicz,Seniorki,Poland,101.5,195,205,-210,205,115,125,-130,125,200,220,-240,220,550,105,M,SBD,Raw
9,Łukasz Głowacz,Seniorki,Poland,98.7,160,-170,-170,160,135,140,145,145,170,185,192.5,192.5,497.5,105,M,SBD,Raw
1,Mateusz Grzesik,Seniorki,Poland,108.8,-250,-270,275,275,185,192.5,197.5,197.5,280,295,302.5,302.5,775,120,M,SBD,Raw
2,Piotr Sadowski #1,Seniorki,Poland,117.4,-265,270,-280.5,270,-190.5,190.5,-200,190.5,280,-295,295,295,755.5,120,M,SBD,Raw
3,Sebastian Sobiech,Seniorki,Poland,112.7,240,245,255,255,175,180,-185,180,265,275,-285,275,710,120,M,SBD,Raw
4,Andrzej Koszyk,Seniorki,Poland,111.2,210,220,225,225,180,187.5,190,190,230,240,-250,240,655,120,M,SBD,Raw
5,Hubert Dudziak,Seniorki,Poland,119.2,230,245,250,250,130,137.5,-142.5,137.5,230,240,250,250,637.5,120,M,SBD,Raw
6,Łukasz Kubańda,Seniorki,Poland,117,-210,210,220,220,140,150,155,155,220,235,-250,235,610,120,M,SBD,Raw
7,Jakub Olechowski,Seniorki,Poland,106.9,205,-215,-215,205,135,142.5,147.5,147.5,-220,220,237.5,237.5,590,120,M,SBD,Raw
8,Marcin Kozłowski,Seniorki,Poland,108.1,150,160,170,170,115,125,-132.5,125,210,220,230,230,525,120,M,SBD,Raw
DQ,Artur Szakiel,Seniorki,Poland,116.9,-160,-165,-165,,,,,,,,,,,120,M,SBD,Raw
G,Tomasz Konczynski,Seniorki,Poland,106.8,207.5,-215,217.5,217.5,157.5,-165,-165,157.5,230,240,250,250,625,120,M,SBD,Raw
1,Damian Ostrowski,Seniorki,Poland,121.1,-260,260,270,270,180,190,200,200,270,285,-300,285,755,120+,M,SBD,Raw
2,Karol Jańczak,Seniorki,Poland,122.6,215,225,235,235,190,200,205,205,270,290,-305,290,730,120+,M,SBD,Raw
3,Oskar Frydrych,Seniorki,Poland,125.3,250,260,270,270,160,165,-172.2,165,260,270,280,280,715,120+,M,SBD,Raw
4,Przemysław Tomica,Seniorki,Poland,122.6,-242.5,242.5,252.5,252.5,157.5,165,-170,165,-260,260,282.5,282.5,700,120+,M,SBD,Raw
5,Rafał Lipka,Seniorki,Poland,120.8,240,245,250,250,155,160,165,165,240,255,262.5,262.5,677.5,120+,M,SBD,Raw
6,Tomasz Szachowicz,Seniorki,Poland,130.4,217.5,230,240,240,187.5,197.5,-202.5,197.5,200,215,-230,215,652.5,120+,M,SBD,Raw
7,Ryszard Szymoniak,Seniorki,Poland,120.2,-230,230,-250,230,165,-172.5,-172.5,165,230,240,250,250,645,120+,M,SBD,Raw
8,Pawel Pluta,Seniorki,Poland,124.6,190,205,220,220,145,-155,155,155,190,205,220,220,595,120+,M,SBD,Raw
9,Lukasz Mikulski,Seniorki,Poland,120.3,145,152.5,160,160,117.5,125,130,130,170,185,200,200,490,120+,M,SBD,Raw
DQ,Miłosz Pytawski,Seniorki,Poland,146.7,-200,200,225,225,-215,-215,-215,,,,,,,120+,M,SBD,Raw
1,Piotr Markiewicz,Weteranki 40-49 lat,Poland,65,145,155,162.5,162.5,95,100,-102.5,100,190,200,205,205,467.5,83,M,SBD,Raw
2,Daniel Cieplak,Weteranki 40-49 lat,Poland,82.8,175,-182.5,182.5,182.5,145,-150,-150,145,215,225,-230,225,552.5,83,M,SBD,Raw
3,Wojciech Kordeczka,Weteranki 40-49 lat,Poland,73.5,-120,130,135,135,105,-107.5,-107.5,105,170,180,-190,180,420,83,M,SBD,Raw
DQ,Dariusz Kieblesz,Weteranki 40-49 lat,Poland,80.7,180,185,187.5,187.5,120,122.5,,122.5,-220,-232.5,-232.5,,,83,M,SBD,Raw
1,Mariusz Rufkiewicz,Weteranki 40-49 lat,Poland,100,200,215,222.5,222.5,145,152.5,160,160,220,235,240,240,622.5,83+,M,SBD,Raw
2,Tomasz Szachowicz,Weteranki 40-49 lat,Poland,130.4,217.5,230,240,240,187.5,197.5,202.5,202.5,200,215,-230,215,657.5,83+,M,SBD,Raw
3,Jarosław Dąbrowski,Weteranki 40-49 lat,Poland,103.6,-205,205,215,215,-145,147.5,-150,147.5,230,245,-255,245,607.5,83+,M,SBD,Raw
4,Jarosław Bastek,Weteranki 40-49 lat,Poland,110.3,185,195,-205,195,170,-180,-180,170,-220,235,-250,235,600,83+,M,SBD,Raw
5,Waldemar Doktór,Weteranki 40-49 lat,Poland,105,-180,185,190,190,120,125,-127.5,125,180,190,200,200,515,83+,M,SBD,Raw
6,Jacek Wieczorek,Weteranki 40-49 lat,Poland,116.2,110,120,140,140,165,-172.5,-172.5,165,200,-220,-220,200,505,83+,M,SBD,Raw
DQ,Leszek Dąbrowski,Weteranki 40-49 lat,Poland,102.8,-210,-210,-210,,,,,,,,,,,83+,M,SBD,Raw
1,Eugeniusz Mehlich,Weteranki 50-59 lat,Poland,73.1,107.5,115,120,120,120,125,130,130,130,140,150,150,400,83,M,SBD,Raw
2,Marian Piwowarczyk,Weteranki 50-59 lat,Poland,66,90,100,-115,100,90,95,-100,95,140,155,165,165,360,83,M,SBD,Raw
1,Józef Gromek,Weteranki 50-59 lat,Poland,85.6,-170,170,-190,170,100,110,,110,200,220,-240,220,500,83+,M,SBD,Raw
1,Włodzimierz Żmijewski,Weteranki 60-69 lat,Poland,72.3,190,205,212.5,212.5,70,-72.5,-75,70,230,250,-263,250,532.5,83,M,SBD,Raw
2,Jerzy Więzik,Weteranki 60-69 lat,Poland,79.5,120,125,130,130,100,,,100,150,-160,162.5,162.5,392.5,83,M,SBD,Raw
3,Tadeusz Okorski,Weteranki 60-69 lat,Poland,78,115,125,130,130,-90,-92.5,95,95,150,157.5,-160,157.5,382.5,83,M,SBD,Raw
1,Kazimierz Tamiłowski,Weteranki 60-69 lat,Poland,84.3,-140,140,-160,140,140,-147.5,-147.5,140,145,160,-191,160,440,83+,M,SBD,Raw
